book_class,href,title,author
Undergraduate Topics in Computer Science,https://link.springer.com//book/10.1007/978-3-030-25943-3,Advanced Guide to Python 3 Programming,Dr. John Hunt
,https://link.springer.com//book/10.1007/978-3-319-94463-0,Neural Networks and Deep Learning,Dr. Charu C. Aggarwal
,https://link.springer.com//book/10.1007/978-3-030-00581-8,Introductory Computer Forensics,Xiaodong Lin
,https://link.springer.com//book/10.1007/978-3-319-64410-3,Probability and Statistics for Computer Science,David Forsyth
,https://link.springer.com//book/10.1007/978-3-319-63588-0,Logical Foundations of Cyber-Physical Systems,Prof. André Platzer
,https://link.springer.com//book/10.1007/978-3-319-92429-8,Systems Programming in Unix/Linux,K.C. Wang
,https://link.springer.com//book/10.1007/978-3-319-89491-1,Fundamentals of Java Programming,Mitsunori Ogihar
,https://link.springer.com//book/10.1007/978-3-662-56509-4,Fundamentals of Business Process Management,Marlon Dumas
,https://link.springer.com//book/10.1007/978-3-319-75502-1,Introduction to Programming with Fortran,Ian Chivers
,https://link.springer.com//book/10.1007/978-3-319-75771-1,"A Beginner's Guide to Scala, Object Orientation and Functional Programming",Dr. John Hunt
Undergraduate Topics in Computer Science,https://link.springer.com//book/10.1007/978-3-319-73004-2,Introduction to Deep Learning,Dr. Sandro Skansi
Undergraduate Topics in Computer Science,https://link.springer.com//book/10.1007/978-3-319-91155-7,Analysis for Computer Scientists,"Univ.-Prof. Dr. Dr. Michael Oberguggenberger, Univ.-Prof. Dr. Alexander Ostermann"
Undergraduate Topics in Computer Science,https://link.springer.com//book/10.1007/978-3-319-98833-7,Introduction to Parallel Computing,Dr. Roman Trobec
,https://link.springer.com//book/10.1007/978-3-319-63913-0,An Introduction to Machine Learning,Miroslav Kubat
,https://link.springer.com//book/10.1007/978-3-319-57883-5,Eye Tracking Methodology,Andrew T. Duchowski
Undergraduate Topics in Computer Science,https://link.springer.com//book/10.1007/978-3-319-58487-4,Introduction to Artificial Intelligence,Prof. Dr. Wolfgang Ertel
Undergraduate Topics in Computer Science,https://link.springer.com//book/10.1007/978-3-319-70790-7,Foundations of Programming Languages,Prof. Kent D. Lee
Undergraduate Topics in Computer Science,https://link.springer.com//book/10.1007/978-3-319-72547-5,Guide to Competitive Programming,Antti Laaksonen
Undergraduate Topics in Computer Science,https://link.springer.com//book/10.1007/978-3-319-57750-0,Concise Guide to Software Engineering,Gerard O'Regan
Texts in Computer Science,https://link.springer.com//book/10.1007/978-3-319-55444-0,The Data Science Design Manual,Steven S. Skien
Computer Communications and Networks,https://link.springer.com//book/10.1007/978-3-319-55606-2,Guide to Computer Network Security,Joseph Migga Kizz
Undergraduate Topics in Computer Science,https://link.springer.com//book/10.1007/978-3-319-50017-1,Introduction to Data Science,Laura Igual
Undergraduate Topics in Computer Science,https://link.springer.com//book/10.1007/978-3-319-73132-2,Guide to Scientific Computing in C++,Dr. Joe Pitt-Francis
,https://link.springer.com//book/10.1007/978-3-319-29659-3,Recommender Systems,Charu C. Aggarwal
Texts in Computer Science,https://link.springer.com//book/10.1007/978-1-4471-6684-9,Digital Image Processing,Wilhelm Burger
Undergraduate Topics in Computer Science,https://link.springer.com//book/10.1007/978-1-4471-7307-6,Principles of Data Mining,Max Bramer
Texts in Computer Science,https://link.springer.com//book/10.1007/978-3-319-44561-8,Guide to Discrete Mathematics,Gerard O'Regan
Information Security and Cryptography,https://link.springer.com//book/10.1007/978-3-319-21936-3,Cryptography Made Simple,Nigel P. Smart
,https://link.springer.com//book/10.1007/978-3-319-14142-8,Data Mining,Charu C. Aggarwal
Undergraduate Topics in Computer Science,https://link.springer.com//book/10.1007/978-3-319-13072-9,Data Structures and Algorithms with Python,Kent D. Lee
