book_class,href,title,author
Undergraduate Lecture Notes in Physics,https://link.springer.com//book/10.1007/978-3-319-78181-5,Introduction to Particle and Astroparticle Physics,Alessandro De Angelis
Undergraduate Lecture Notes in Physics,https://link.springer.com//book/10.1007/978-3-030-00464-4,Quantum Mechanics for Pedestrians 1,Prof. Dr. Jochen Pade
Undergraduate Lecture Notes in Physics,https://link.springer.com//book/10.1007/978-3-030-00467-5,Quantum Mechanics for Pedestrians 2,Prof. Dr. Jochen Pade
Undergraduate Texts in Physics,https://link.springer.com//book/10.1007/978-3-319-72314-3,Physics of Oscillations and Waves,Dr. Arnt Inge Vistnes
Undergraduate Lecture Notes in Physics,https://link.springer.com//book/10.1007/978-3-319-78361-1,Linear Algebra and Analytic Geometry for Physical Sciences,Dr. Giovanni Landi
Undergraduate Lecture Notes in Physics,https://link.springer.com//book/10.1007/978-3-319-66631-0,Physics from Symmetry,Jakob Schwichtenberg
UNITEXT for Physics,https://link.springer.com//book/10.1007/978-3-319-68598-4,Introductory Quantum Mechanics,Prof. Dr. Paul R. Berman
Undergraduate Lecture Notes in Physics,https://link.springer.com//book/10.1007/978-3-319-92207-2,A First Introduction to Quantum Physics,Dr. Pieter Kok
Undergraduate Lecture Notes in Physics,https://link.springer.com//book/10.1007/978-981-13-1090-4,Introduction to General Relativity,Prof. Dr. Cosimo Bambi
,https://link.springer.com//book/10.1007/978-3-662-53045-0,Fundamental Astronomy,Hannu Karttunen
,https://link.springer.com//book/10.1007/978-3-319-63133-2,Problems in Classical Electromagnetism,Dr. Andrea Macchi
,https://link.springer.com//book/10.1007/978-3-319-57040-2,Cosmology for the Curious,Delia Perlov
Undergraduate Lecture Notes in Physics,https://link.springer.com//book/10.1007/978-3-319-27877-3,Mechanics and Thermodynamics,Wolfgang Demtröder
Undergraduate Lecture Notes in Physics,https://link.springer.com//book/10.1007/978-3-319-65867-4,Foundations of Quantum Mechanics,Dr. Travis Norsen
Graduate Texts in Physics,https://link.springer.com//book/10.1007/978-1-4939-6572-4,Statistics and Analysis of Scientific Dat,Massimiliano Bonamente
Graduate Texts in Physics,https://link.springer.com//book/10.1007/978-3-319-61088-7,Computational Physics,Prof. Dr. Philipp O.J. Scherer
Graduate Texts in Physics,https://link.springer.com//book/10.1007/978-3-319-50651-7,Basics of Laser Physics,Karl F. Renk
,https://link.springer.com//book/10.1007/978-3-319-22309-4,Introduction to Plasma Physics and Controlled Fusion,Francis F. Chen
,https://link.springer.com//book/10.1007/978-3-319-27265-8,Basic Concepts in Computational Physics,Benjamin A. Stickler
Graduate Texts in Physics,https://link.springer.com//book/10.1007/978-3-319-25675-7,Advanced Quantum Mechanics,Rainer Dick
Graduate Texts in Physics,https://link.springer.com//book/10.1007/978-3-319-23880-7,The Physics of Semiconductors,Marius Grundmann
,https://link.springer.com//book/10.1007/978-3-642-54083-7,Extragalactic Astronomy and Cosmology,Peter Schneider
,https://link.springer.com//book/10.1007/978-3-319-12682-1,Intermediate Physics for Medicine and Biology,Russell K. Hobbie
Graduate Texts in Physics,https://link.springer.com//book/10.1007/978-3-662-46321-5,Particles and Nuclei,Bogdan Povh
Graduate Texts in Physics,https://link.springer.com//book/10.1007/978-3-319-09351-2,Fluid Dynamics,Michel Rieutord
Undergraduate Lecture Notes in Physics,https://link.springer.com//book/10.1007/978-3-319-19587-2,Elementary Mechanics Using Matlab,Anders Malthe-Sørenssen
Undergraduate Lecture Notes in Physics,https://link.springer.com//book/10.1007/978-3-319-19596-4,Elementary Mechanics Using Python,Anders Malthe-Sørenssen
,https://link.springer.com//book/10.1007/978-3-319-03762-2,Data Analysis,Siegmund Brandt
Undergraduate Lecture Notes in Physics,https://link.springer.com//book/10.1007/978-1-4614-9236-8,Principles of Astrophysics,Charles Keeton
Graduate Texts in Physics,https://link.springer.com//book/10.1007/978-3-319-00894-3,Introduction to Mathematica® for Physicists,Andrey Grozin
